…
+     pivot_wider(names_from = "stat", 
+                 values_from = "val") 
+ }
> # Take start time to measure time of random search algorithm
> start.time <- Sys.time()
> 
> grid <- grid_max_entropy(mtry(as.integer(c(.3*185, .9*185))), # min_child_weight
+                          sample_size(as.integer(c(.5*nrow(train), nrow(train)))), # max_depth
+                          size = 30)
> 
> grid <- grid %>% 
+   mutate(mtry = mtry/185,
+          sample_size = sample_size/nrow(train))
> print(grid)
# A tibble: 30 x 2
    mtry sample_size
   <dbl>       <dbl>
 1 0.568       0.956
 2 0.335       0.511
 3 0.805       0.772
 4 0.886       0.592
 5 0.557       0.554
 6 0.643       0.985
 7 0.827       0.515
 8 0.741       0.569
 9 0.357       0.918
10 0.751       0.868
# … with 20 more rows
…
